{
    "seq_len": 32,
    "usecols": [
        "text",
        "target"
    ],
    "tokenizer": "tokenize_re",
    "embeddings": [
        2000,
        64
    ],
    "kernel_lengths": [
        2,
        3,
        4,
        5
    ],
    "strides": [
        2,
        2,
        2,
        2
    ],
    "conv_output_size": 32,
    "in_channels": 32,
    "planes": 1,
    "out_channels": 32,
    "groups": 32,
    "epochs": 10,
    "batch_size": 12,
    "learning_rate": 0.001,
    "test_size": 0.1,
    "dropout_portion": 0.2,
    "num_stopwords": 0,
    "case_sensitive": true,
    "split_random_state": 1459833,
    "numpy_random_state": 656,
    "torch_random_state": 656168,
    "re_sub": "[^A-Za-z0-9.?!]+",
    "vocab_size": 2000,
    "embedding_size": 64,
    "learning_curve": [
        [
            0.5472432971000671,
            0.6115895489709532,
            0.6194225721784777
        ],
        [
            0.4098464250564575,
            0.6820902058093709,
            0.6443569553805775
        ],
        [
            0.43718764185905457,
            0.7146401985111662,
            0.6509186351706037
        ],
        [
            0.4248660206794739,
            0.7423733761494672,
            0.6548556430446194
        ],
        [
            0.43556681275367737,
            0.7636841337031091,
            0.6496062992125984
        ],
        [
            0.3932565748691559,
            0.786892424463582,
            0.6430446194225722
        ],
        [
            0.38814017176628113,
            0.8020726901182309,
            0.6535433070866141
        ],
        [
            0.3940637409687042,
            0.818274704422712,
            0.6614173228346457
        ],
        [
            0.2922862768173218,
            0.8264486936213692,
            0.6627296587926509
        ],
        [
            0.3125564455986023,
            0.846007882061013,
            0.6653543307086615
        ]
    ],
    "loss": 0.3125564455986023,
    "train_accuracy": 0.846007882061013,
    "test_accuracy": 0.6653543307086615
}